^C:\USERS\PC\DOCUMENTS\HWTH\OSIZEZANJE\ADMIN.CPP
/c /ZI /nologo /W3 /WX- /sdl /Od /D _MBCS /Gm /EHsc /RTC1 /MDd /GS /fp:precise /Zc:wchar_t /Zc:forScope /Zc:inline /Fo"X64\DEBUG\\" /Fd"X64\DEBUG\VC140.PDB" /Gd /TP C:\USERS\PC\DOCUMENTS\HWTH\OSIZEZANJE\ADMIN.CPP
^C:\USERS\PC\DOCUMENTS\HWTH\OSIZEZANJE\ADMINPANEL.CPP
/c /ZI /nologo /W3 /WX- /sdl /Od /D _MBCS /Gm /EHsc /RTC1 /MDd /GS /fp:precise /Zc:wchar_t /Zc:forScope /Zc:inline /Fo"X64\DEBUG\\" /Fd"X64\DEBUG\VC140.PDB" /Gd /TP C:\USERS\PC\DOCUMENTS\HWTH\OSIZEZANJE\ADMINPANEL.CPP
^C:\USERS\PC\DOCUMENTS\HWTH\OSIZEZANJE\DRAW.CPP
/c /ZI /nologo /W3 /WX- /sdl /Od /D _MBCS /Gm /EHsc /RTC1 /MDd /GS /fp:precise /Zc:wchar_t /Zc:forScope /Zc:inline /Fo"X64\DEBUG\\" /Fd"X64\DEBUG\VC140.PDB" /Gd /TP C:\USERS\PC\DOCUMENTS\HWTH\OSIZEZANJE\DRAW.CPP
^C:\USERS\PC\DOCUMENTS\HWTH\OSIZEZANJE\KORISNIK.CPP
/c /ZI /nologo /W3 /WX- /sdl /Od /D _MBCS /Gm /EHsc /RTC1 /MDd /GS /fp:precise /Zc:wchar_t /Zc:forScope /Zc:inline /Fo"X64\DEBUG\\" /Fd"X64\DEBUG\VC140.PDB" /Gd /TP C:\USERS\PC\DOCUMENTS\HWTH\OSIZEZANJE\KORISNIK.CPP
^C:\USERS\PC\DOCUMENTS\HWTH\OSIZEZANJE\LOGIN.CPP
/c /ZI /nologo /W3 /WX- /sdl /Od /D _MBCS /Gm /EHsc /RTC1 /MDd /GS /fp:precise /Zc:wchar_t /Zc:forScope /Zc:inline /Fo"X64\DEBUG\\" /Fd"X64\DEBUG\VC140.PDB" /Gd /TP C:\USERS\PC\DOCUMENTS\HWTH\OSIZEZANJE\LOGIN.CPP
^C:\USERS\PC\DOCUMENTS\HWTH\OSIZEZANJE\MAINMENU.CPP
/c /ZI /nologo /W3 /WX- /sdl /Od /D _MBCS /Gm /EHsc /RTC1 /MDd /GS /fp:precise /Zc:wchar_t /Zc:forScope /Zc:inline /Fo"X64\DEBUG\\" /Fd"X64\DEBUG\VC140.PDB" /Gd /TP C:\USERS\PC\DOCUMENTS\HWTH\OSIZEZANJE\MAINMENU.CPP
^C:\USERS\PC\DOCUMENTS\HWTH\OSIZEZANJE\NAPLATNAKUCA.CPP
/c /ZI /nologo /W3 /WX- /sdl /Od /D _MBCS /Gm /EHsc /RTC1 /MDd /GS /fp:precise /Zc:wchar_t /Zc:forScope /Zc:inline /Fo"X64\DEBUG\\" /Fd"X64\DEBUG\VC140.PDB" /Gd /TP C:\USERS\PC\DOCUMENTS\HWTH\OSIZEZANJE\NAPLATNAKUCA.CPP
^C:\USERS\PC\DOCUMENTS\HWTH\OSIZEZANJE\RADNIK.CPP
/c /ZI /nologo /W3 /WX- /sdl /Od /D _MBCS /Gm /EHsc /RTC1 /MDd /GS /fp:precise /Zc:wchar_t /Zc:forScope /Zc:inline /Fo"X64\DEBUG\\" /Fd"X64\DEBUG\VC140.PDB" /Gd /TP C:\USERS\PC\DOCUMENTS\HWTH\OSIZEZANJE\RADNIK.CPP
^C:\USERS\PC\DOCUMENTS\HWTH\OSIZEZANJE\SOURCE.CPP
/c /ZI /nologo /W3 /WX- /sdl /Od /D _MBCS /Gm /EHsc /RTC1 /MDd /GS /fp:precise /Zc:wchar_t /Zc:forScope /Zc:inline /Fo"X64\DEBUG\\" /Fd"X64\DEBUG\VC140.PDB" /Gd /TP C:\USERS\PC\DOCUMENTS\HWTH\OSIZEZANJE\SOURCE.CPP
^C:\USERS\PC\DOCUMENTS\HWTH\OSIZEZANJE\USER_MANIPULATION.CPP
/c /ZI /nologo /W3 /WX- /sdl /Od /D _MBCS /Gm /EHsc /RTC1 /MDd /GS /fp:precise /Zc:wchar_t /Zc:forScope /Zc:inline /Fo"X64\DEBUG\\" /Fd"X64\DEBUG\VC140.PDB" /Gd /TP C:\USERS\PC\DOCUMENTS\HWTH\OSIZEZANJE\USER_MANIPULATION.CPP
^C:\USERS\HP\DOCUMENTS\HWTH\OSIZEZANJE\ADMIN.CPP
/c /ZI /nologo /W3 /WX- /sdl /Od /D _MBCS /Gm /EHsc /RTC1 /MDd /GS /fp:precise /Zc:wchar_t /Zc:forScope /Zc:inline /Fo"X64\DEBUG\\" /Fd"X64\DEBUG\VC140.PDB" /Gd /TP C:\USERS\HP\DOCUMENTS\HWTH\OSIZEZANJE\ADMIN.CPP
^C:\USERS\HP\DOCUMENTS\HWTH\OSIZEZANJE\ADMINPANEL.CPP
/c /ZI /nologo /W3 /WX- /sdl /Od /D _MBCS /Gm /EHsc /RTC1 /MDd /GS /fp:precise /Zc:wchar_t /Zc:forScope /Zc:inline /Fo"X64\DEBUG\\" /Fd"X64\DEBUG\VC140.PDB" /Gd /TP C:\USERS\HP\DOCUMENTS\HWTH\OSIZEZANJE\ADMINPANEL.CPP
^C:\USERS\HP\DOCUMENTS\HWTH\OSIZEZANJE\DRAW.CPP
/c /ZI /nologo /W3 /WX- /sdl /Od /D _MBCS /Gm /EHsc /RTC1 /MDd /GS /fp:precise /Zc:wchar_t /Zc:forScope /Zc:inline /Fo"X64\DEBUG\\" /Fd"X64\DEBUG\VC140.PDB" /Gd /TP C:\USERS\HP\DOCUMENTS\HWTH\OSIZEZANJE\DRAW.CPP
^C:\USERS\HP\DOCUMENTS\HWTH\OSIZEZANJE\KORISNIK.CPP
/c /ZI /nologo /W3 /WX- /sdl /Od /D _MBCS /Gm /EHsc /RTC1 /MDd /GS /fp:precise /Zc:wchar_t /Zc:forScope /Zc:inline /Fo"X64\DEBUG\\" /Fd"X64\DEBUG\VC140.PDB" /Gd /TP C:\USERS\HP\DOCUMENTS\HWTH\OSIZEZANJE\KORISNIK.CPP
^C:\USERS\HP\DOCUMENTS\HWTH\OSIZEZANJE\LOGIN.CPP
/c /ZI /nologo /W3 /WX- /sdl /Od /D _MBCS /Gm /EHsc /RTC1 /MDd /GS /fp:precise /Zc:wchar_t /Zc:forScope /Zc:inline /Fo"X64\DEBUG\\" /Fd"X64\DEBUG\VC140.PDB" /Gd /TP C:\USERS\HP\DOCUMENTS\HWTH\OSIZEZANJE\LOGIN.CPP
^C:\USERS\HP\DOCUMENTS\HWTH\OSIZEZANJE\MAINMENU.CPP
/c /ZI /nologo /W3 /WX- /sdl /Od /D _MBCS /Gm /EHsc /RTC1 /MDd /GS /fp:precise /Zc:wchar_t /Zc:forScope /Zc:inline /Fo"X64\DEBUG\\" /Fd"X64\DEBUG\VC140.PDB" /Gd /TP C:\USERS\HP\DOCUMENTS\HWTH\OSIZEZANJE\MAINMENU.CPP
^C:\USERS\HP\DOCUMENTS\HWTH\OSIZEZANJE\NAPLATNAKUCA.CPP
/c /ZI /nologo /W3 /WX- /sdl /Od /D _MBCS /Gm /EHsc /RTC1 /MDd /GS /fp:precise /Zc:wchar_t /Zc:forScope /Zc:inline /Fo"X64\DEBUG\\" /Fd"X64\DEBUG\VC140.PDB" /Gd /TP C:\USERS\HP\DOCUMENTS\HWTH\OSIZEZANJE\NAPLATNAKUCA.CPP
^C:\USERS\HP\DOCUMENTS\HWTH\OSIZEZANJE\RADNIK.CPP
/c /ZI /nologo /W3 /WX- /sdl /Od /D _MBCS /Gm /EHsc /RTC1 /MDd /GS /fp:precise /Zc:wchar_t /Zc:forScope /Zc:inline /Fo"X64\DEBUG\\" /Fd"X64\DEBUG\VC140.PDB" /Gd /TP C:\USERS\HP\DOCUMENTS\HWTH\OSIZEZANJE\RADNIK.CPP
^C:\USERS\HP\DOCUMENTS\HWTH\OSIZEZANJE\SOURCE.CPP
/c /ZI /nologo /W3 /WX- /sdl /Od /D _MBCS /Gm /EHsc /RTC1 /MDd /GS /fp:precise /Zc:wchar_t /Zc:forScope /Zc:inline /Fo"X64\DEBUG\\" /Fd"X64\DEBUG\VC140.PDB" /Gd /TP C:\USERS\HP\DOCUMENTS\HWTH\OSIZEZANJE\SOURCE.CPP
^C:\USERS\HP\DOCUMENTS\HWTH\OSIZEZANJE\USER_MANIPULATION.CPP
/c /ZI /nologo /W3 /WX- /sdl /Od /D _MBCS /Gm /EHsc /RTC1 /MDd /GS /fp:precise /Zc:wchar_t /Zc:forScope /Zc:inline /Fo"X64\DEBUG\\" /Fd"X64\DEBUG\VC140.PDB" /Gd /TP C:\USERS\HP\DOCUMENTS\HWTH\OSIZEZANJE\USER_MANIPULATION.CPP
