^C:\USERS\HP\DOCUMENTS\VISUAL STUDIO 2015\PROJECTS\OSIZEZANJE\OSIZEZANJE\DEBUG\ADMINPANEL.OBJ|C:\USERS\HP\DOCUMENTS\VISUAL STUDIO 2015\PROJECTS\OSIZEZANJE\OSIZEZANJE\DEBUG\DRAW.OBJ|C:\USERS\HP\DOCUMENTS\VISUAL STUDIO 2015\PROJECTS\OSIZEZANJE\OSIZEZANJE\DEBUG\KORISNIK.OBJ|C:\USERS\HP\DOCUMENTS\VISUAL STUDIO 2015\PROJECTS\OSIZEZANJE\OSIZEZANJE\DEBUG\LOGIN.OBJ|C:\USERS\HP\DOCUMENTS\VISUAL STUDIO 2015\PROJECTS\OSIZEZANJE\OSIZEZANJE\DEBUG\MAINMENU.OBJ|C:\USERS\HP\DOCUMENTS\VISUAL STUDIO 2015\PROJECTS\OSIZEZANJE\OSIZEZANJE\DEBUG\NAPLATNAKUCA.OBJ|C:\USERS\HP\DOCUMENTS\VISUAL STUDIO 2015\PROJECTS\OSIZEZANJE\OSIZEZANJE\DEBUG\SOURCE.OBJ|C:\USERS\HP\DOCUMENTS\VISUAL STUDIO 2015\PROJECTS\OSIZEZANJE\OSIZEZANJE\DEBUG\USER_MANIPULATION.OBJ
C:\USERS\HP\DOCUMENTS\VISUAL STUDIO 2015\PROJECTS\OSIZEZANJE\DEBUG\OSIZEZANJE.ILK
C:\USERS\HP\DOCUMENTS\VISUAL STUDIO 2015\PROJECTS\OSIZEZANJE\DEBUG\OSIZEZANJE.EXE
C:\USERS\HP\DOCUMENTS\VISUAL STUDIO 2015\PROJECTS\OSIZEZANJE\DEBUG\OSIZEZANJE.PDB
^C:\USERS\PC\DESKTOP\OSIZEZANJE\OSIZEZANJE\DEBUG\ADMIN.OBJ|C:\USERS\PC\DESKTOP\OSIZEZANJE\OSIZEZANJE\DEBUG\ADMINPANEL.OBJ|C:\USERS\PC\DESKTOP\OSIZEZANJE\OSIZEZANJE\DEBUG\DRAW.OBJ|C:\USERS\PC\DESKTOP\OSIZEZANJE\OSIZEZANJE\DEBUG\KORISNIK.OBJ|C:\USERS\PC\DESKTOP\OSIZEZANJE\OSIZEZANJE\DEBUG\LOGIN.OBJ|C:\USERS\PC\DESKTOP\OSIZEZANJE\OSIZEZANJE\DEBUG\MAINMENU.OBJ|C:\USERS\PC\DESKTOP\OSIZEZANJE\OSIZEZANJE\DEBUG\NAPLATNAKUCA.OBJ|C:\USERS\PC\DESKTOP\OSIZEZANJE\OSIZEZANJE\DEBUG\RADNIK.OBJ|C:\USERS\PC\DESKTOP\OSIZEZANJE\OSIZEZANJE\DEBUG\SOURCE.OBJ|C:\USERS\PC\DESKTOP\OSIZEZANJE\OSIZEZANJE\DEBUG\USER_MANIPULATION.OBJ
C:\USERS\PC\DESKTOP\OSIZEZANJE\DEBUG\OSIZEZANJE.ILK
C:\USERS\PC\DESKTOP\OSIZEZANJE\DEBUG\OSIZEZANJE.EXE
C:\USERS\PC\DESKTOP\OSIZEZANJE\DEBUG\OSIZEZANJE.PDB
